{
  "openapi": "3.0.3",
  "info": {
    "title": "BlackStack API",
    "version": "1.0.0",
    "description": "Casino session tracking + blackjack strategy API. Update this when endpoints change."
  },
  "servers": [
    { "url": "http://localhost:3000/api/v1", "description": "Local development" },
    { "url": "https://staging.example.com/api/v1", "description": "Staging" }
  ],
  "components": {
    "securitySchemes": {
      "bearerAuth": {
        "type": "http",
        "scheme": "bearer",
        "bearerFormat": "JWT"
      }
    },
    "schemas": {
      "Error": {
        "type": "object",
        "required": ["error"],
        "properties": {
          "error": {
            "type": "object",
            "required": ["code", "message"],
            "properties": {
              "code": { "type": "string", "example": "VALIDATION_ERROR" },
              "message": { "type": "string", "example": "Request validation failed" },
              "details": {
                "type": "array",
                "items": {
                  "type": "object",
                  "properties": {
                    "field": { "type": "string" },
                    "message": { "type": "string" }
                  }
                }
              }
            }
          }
        }
      },
      "User": {
        "type": "object",
        "properties": {
          "id": { "type": "string", "format": "uuid" },
          "email": { "type": "string", "format": "email" },
          "name": { "type": "string" },
          "role": { "type": "string", "enum": ["USER", "ADMIN"] },
          "createdAt": { "type": "string", "format": "date-time" }
        }
      },
      "Pagination": {
        "type": "object",
        "properties": {
          "page": { "type": "integer" },
          "pageSize": { "type": "integer" },
          "total": { "type": "integer" },
          "totalPages": { "type": "integer" },
          "hasNext": { "type": "boolean" },
          "hasPrev": { "type": "boolean" }
        }
      }
    }
  },
  "paths": {
    "/health": {
      "get": {
        "summary": "Health check",
        "operationId": "healthCheck",
        "tags": ["System"],
        "responses": {
          "200": {
            "description": "Service is healthy",
            "content": {
              "application/json": {
                "example": {
                  "status": "ok",
                  "timestamp": "2024-01-15T10:30:00.000Z",
                  "checks": {
                    "database": { "status": "ok", "latencyMs": 12 },
                    "redis": { "status": "ok", "latencyMs": 3 }
                  }
                }
              }
            }
          },
          "503": { "description": "Service unavailable" }
        }
      }
    },
    "/auth/login": {
      "post": {
        "summary": "Log in with email and password",
        "operationId": "login",
        "tags": ["Auth"],
        "requestBody": {
          "required": true,
          "content": {
            "application/json": {
              "schema": {
                "type": "object",
                "required": ["email", "password"],
                "properties": {
                  "email": { "type": "string", "format": "email" },
                  "password": { "type": "string", "minLength": 8 }
                }
              }
            }
          }
        },
        "responses": {
          "200": {
            "description": "Login successful",
            "content": {
              "application/json": {
                "example": {
                  "data": {
                    "accessToken": "eyJhbGciOiJIUzI1NiJ9...",
                    "user": { "id": "uuid", "email": "user@example.com", "name": "Alice" }
                  }
                }
              }
            }
          },
          "400": { "$ref": "#/components/schemas/Error" },
          "401": { "$ref": "#/components/schemas/Error" }
        }
      }
    },
    "/users": {
      "get": {
        "summary": "List users",
        "operationId": "listUsers",
        "tags": ["Users"],
        "security": [{ "bearerAuth": [] }],
        "parameters": [
          { "name": "page", "in": "query", "schema": { "type": "integer", "default": 1 } },
          { "name": "pageSize", "in": "query", "schema": { "type": "integer", "default": 20, "maximum": 100 } }
        ],
        "responses": {
          "200": {
            "description": "Paginated list of users",
            "content": {
              "application/json": {
                "example": {
                  "data": [{ "id": "uuid", "email": "user@example.com", "name": "Alice" }],
                  "pagination": { "page": 1, "pageSize": 20, "total": 42, "totalPages": 3 }
                }
              }
            }
          },
          "401": { "$ref": "#/components/schemas/Error" }
        }
      },
      "post": {
        "summary": "Create a user",
        "operationId": "createUser",
        "tags": ["Users"],
        "requestBody": {
          "required": true,
          "content": {
            "application/json": {
              "schema": {
                "type": "object",
                "required": ["email", "password", "name"],
                "properties": {
                  "email": { "type": "string", "format": "email" },
                  "password": { "type": "string", "minLength": 8 },
                  "name": { "type": "string", "minLength": 1, "maxLength": 100 }
                }
              }
            }
          }
        },
        "responses": {
          "201": { "description": "User created" },
          "400": { "$ref": "#/components/schemas/Error" },
          "409": { "$ref": "#/components/schemas/Error" }
        }
      }
    }
  }
}
